[
  {
    "number": 1,
    "name": "Carrot",
    "price": 3.49,
    "discription": "Walnut-studded carrot cake with cinnamon cream cheese frosting",
    "id": "1",
    "img": "1",
    "qty": 0
  },
  {
    "number": 2,
    "name": "Red Velvett",
    "price": 4.49,
    "discription": "A chocolate sponge, coloured naturally with beetroot and topped off with cream cheese.",
    "id": "2",
    "img": "2",
    "qty": 0
  },  {
    "number": 3,
    "name": "Mint Chip",
    "price": 3.79,
    "discription": "Homemade chocolate cupcakes topped with thick & creamy mint chocolate chip frosting.",
    "id": "3",
    "img": "3",
    "qty": 0
  },  {
    "number": 4,
    "name": "Pink strawberry",
    "price": 5.49,
    "discription": "A fluffy strawberry cupcake with strawberry buttercream frosting and chocolate syrup. ",
    "id": "4",
    "img": "4",
    "qty": 0
  },  {
    "number": 5,
    "name": "Marshmallow",
    "price": 5.49,
    "discription": "A super chocolatey cupcake base with a soft marshmallowy buttercream topping.",
    "id": "5",
    "img": "5",
    "qty": 0
  },  {
    "number": 6,
    "name": "Dark Chocolate",
    "price": 4.49,
    "discription": "Belgian chocolate cake with sweet chocolate frosting and cheery.",
    "id": "6",
    "img": "6",
    "qty": 0
  },  {
    "number": 7,
    "name": "Salty Caramel",
    "price": 4.99,
    "discription": "Caramel cake with a buttery caramel cream cheese frosting topped with fleur de sel.",
    "id": "7",
    "img": "7",
    "qty": 0
  },  {
    "number": 8,
    "name": "Gluten Free Velvet",
    "price": 3.49,
    "discription": "A gluten free twist on our classic red velvet, topped off with cream cheese.",
    "id": "8",
    "img": "8",
    "qty": 0
  },  {
    "number": 9,
    "name": "Cinnamon",
    "price": 4.79,
    "discription": "Lightly spiced buttermilk cake with cinnamon cream cheese frosting with cinnamon sugar.",
    "id": "9",
    "img": "9",
    "qty": 0
  },  {
    "number": 10,
    "name": "Totally nuts",
    "price": 5.49,
    "discription": "A sweet hazelnut paste with nutella butter cream and chopped hazelnuts on the top. ",
    "id": "10",
    "img": "10",
    "qty": 0
  },  {
    "number": 11,
    "name": "Pink Vanilla",
    "price": 3.49,
    "discription": "Soft, fluffy, and extra moist creamy vanilla buttercream with extra sprinkles ",
    "id": "11",
    "img": "11",
    "qty": 0
  }
]

